[
  {
    "name": "genre-police",
    "status": "Stable",
    "description": "genre-police is a Discord Bot, that posts the Genres to Spotify Links that are posted without any Context.",
    "links": [
      {
        "name": "Gitlab",
        "description": "Project Source Code",
        "url": "https://gitlab.com/rbbl/genre-police"
      },
      {
        "name": "Discord (Invite)",
        "description": "Invite a live Version of this Project to your Discord Server.",
        "url": "https://discord.com/api/oauth2/authorize?client_id=795331174649430016&permissions=0&scope=bot"
      }
    ],
    "technologies": [
      "Kotlin",
      "Docker",
      "Helm",
      "PostgreSQL",
      "Gitlab CI"
    ]
  },
  {
    "name": "Alarm for Spotify",
    "status": "Pre Alpha",
    "description": "An Alarm App for Android, that starts playing Something on Spotify and fires up your bluetooth Speakers.",
    "links": [
      {
        "name": "Gitlab",
        "description": "Project Source Code",
        "url": "https://gitlab.com/rbbl/alarm-for-spotify"
      }
    ],
    "technologies": [
      "Android",
      "Java",
      "Kotlin"
    ]
  },
  {
    "name": "Discord Role Color Preview",
    "status": "Stable",
    "description": "A small SPA to preview Discord Role Colors for both Themes.",
    "links": [
      {
        "name": "Gitlab",
        "description": "Project Source Code",
        "url": "https://gitlab.com/rbbl/discord-role-color-preview"
      },
      {
        "name": "Live Demo",
        "description": "interactive Website",
        "url": "https://discord-color-preview.rbbl.cc/"
      }
    ],
    "technologies": [
      "Angular",
      "HTML",
      "CSS",
      "TypeScript",
      "Gitlab CI"
    ]
  },
  {
    "name": "Cellular Automaton",
    "projects": [
      {
        "name": "Cellular Automaton (Lib)",
        "status": "Beta",
        "description": "This is a Kotlin Multiplatform Library to create 2D Cellular Automata and simulate their Evolution. Supports Torus Map Simulation.",
        "links": [
          {
            "name": "Gitlab",
            "description": "Project Source Code",
            "url": "https://gitlab.com/rbbl/cellular-automaton/"
          }
        ],
        "technologies": [
          "Kotlin",
          "Gitlab CI"
        ]
      },
      {
        "name": "Cellular Automaton Web Demo",
        "status": "Beta",
        "description": "A simple Kotlin Compose Web Application to demo the Lib",
        "links": [
          {
            "name": "Gitlab",
            "description": "Project Source Code",
            "url": "https://gitlab.com/rbbl/cellular-automaton-web-demo"
          },
          {
            "name": "Live Demo",
            "description": "interactive Website",
            "url": "https://cellular-automaton.rbbl.cc/"
          }
        ],
        "technologies": [
          "Kotlin",
          "Gitlab CI"
        ]
      }
    ]
  },
  {
    "name": "Kotlin Multiplatform Builder",
    "status": "Stable",
    "description": "A ready-made Image to build and test Kotlin Multiplatform Projects. Based on the Fedora Image.",
    "links": [
      {
        "name": "Gitlab",
        "description": "Project Source Code",
        "url": "https://gitlab.com/rbbl/kotlin-multiplatform-builder"
      },
      {
        "name": "Docker Hub",
        "description": "Docker Hub",
        "url": "https://hub.docker.com/r/rbbl/kotlin-multiplatform-builder"
      }
    ],
    "technologies": [
      "Docker",
      "Gitlab CI"
    ]
  },
  {
    "name": "program-parameters-jvm",
    "status": "Stable",
    "description": "A small Kotlin Jvm Library to load Parameters from different Sources.",
    "links": [
      {
        "name": "Gitlab",
        "description": "Project Source Code",
        "url": "https://gitlab.com/rbbl/program-parameters-jvm"
      }
    ],
    "technologies": [
      "Kotlin",
      "Gitlab CI"
    ]
  },
  {
    "name": "FizzBuzz Endless Edition",
    "status": "Stable",
    "description": "Just another FizzBuzz Implementation in the Form of a static HTML endless Scroller.",
    "links": [
      {
        "name": "Gitlab",
        "description": "Project Source Code",
        "url": "https://gitlab.com/rbbl/fizzbuzz-ee"
      },
      {
        "name": "Live Demo",
        "description": "interactive Website",
        "url": "https://fizzbuzz-ee.rbbl.cc"
      }
    ],
    "technologies": [
      "HTML",
      "CSS",
      "TypeScript",
      "Gitlab CI"
    ]
  },
  {
    "name": "rbbl-zsh",
    "status": "Stable",
    "description": "A minimal Zsh Config with some nice Additions for Developers.",
    "links": [
      {
        "name": "Gitlab",
        "description": "Project Source Code",
        "url": "https://gitlab.com/rbbl/rbbl-zsh"
      }
    ],
    "technologies": [
      "Zsh"
    ]
  },
  {
    "name": "This Site",
    "status": "Stable",
    "links": [
      {
        "name": "Gitlab",
        "description": "Project Source Code",
        "url": "https://gitlab.com/rbbl/homepage"
      }
    ],
    "technologies": [
      "Angular",
      "HTML",
      "CSS",
      "TypeScript",
      "Gitlab CI"
    ]
  }
]
